[К812РУ][Volkswagen Golf][white][154125][500400]
[Н687КЛ][Toyota Camry][yellow][98809][850450]
[А278МУ][Volkswagen Polo][red][35474][1100000]
[К351МР][Toyota Camry][silver][324194][680540]
[П371УП][Volkswagen Tiguan][blue][97654][980640]
[Р764МИ][Peugeot 208][silver][35165][1300540]
[Р454КЕ][Ford Focus][black][321654][750800]
[GV2345][Lincoln Navigator][black][125000][3500000]
[У298РТ][Skoda Octavia][green][654684][380450]
[О394ЕК][Volkswagen T-Roc][red][35754][900000]
[У987МИ][Ford Kuga][white][0][1200000]
[О586КЛ][Ford Focus][green][48446][790000]
[Н289ЕО][Toyota Camry][black][187100][1800000]
[Н098ЦУ][Skoda Octavia][yellow][37167][610800]
[О687ТР][Renault Captur][grey][54973][250000]
[В175ЕЕ][Nissan Qashqai][grey][976511][710000]
[Р863СВ][Fiat 500][blue][71654][490900]
[КЛ6544РУ][UAZ Patriot][green][345000][800000]